[{
  "id": 1,
  "fecha": "21/01/2020",
  "importe": 52,
  "latitud": 14.960458,
  "longitud": 120.755354,
  "ciudad": "Apalit"
}, {
  "id": 2,
  "fecha": "27/07/2019",
  "importe": 23,
  "latitud": "53.8653",
  "longitud": "30.5597",
  "ciudad": "Ramanavichy"
}, {
  "id": 3,
  "fecha": "29/11/2019",
  "importe": 3,
  "latitud": 39.1934799,
  "longitud": 117.0775313,
  "ciudad": "Hanjiashu"
}, {
  "id": 4,
  "fecha": "16/11/2019",
  "importe": 27,
  "latitud": 3.5126215,
  "longitud": 33.9750018,
  "ciudad": "Kaabong"
}, {
  "id": 5,
  "fecha": "08/02/2020",
  "importe": 93,
  "latitud": -8.2446702,
  "longitud": 123.1428348,
  "ciudad": "Kotakaya Dua"
}, {
  "id": 6,
  "fecha": "08/02/2020",
  "importe": 82,
  "latitud": 50.8667699,
  "longitud": 18.828601,
  "ciudad": "Częstochowa"
}, {
  "id": 7,
  "fecha": "31/10/2019",
  "importe": 90,
  "latitud": 54.2195351,
  "longitud": -4.4012575,
  "ciudad": "Laxey"
}, {
  "id": 8,
  "fecha": "02/10/2019",
  "importe": 8,
  "latitud": 15.8672784,
  "longitud": -87.8930184,
  "ciudad": "Travesía"
}, {
  "id": 9,
  "fecha": "10/02/2020",
  "importe": 31,
  "latitud": -28.34028,
  "longitud": 23.08194,
  "ciudad": "Postmasburg"
}, {
  "id": 10,
  "fecha": "03/01/2020",
  "importe": 71,
  "latitud": -14.23792,
  "longitud": -72.591949,
  "ciudad": "Mamara"
}]
