[{
  "id": 1,
  "fecha": "16/02/2020",
  "importe": 87,
  "latitud": 38.143169,
  "longitud": 117.497651
}, {
  "id": 2,
  "fecha": "18/06/2019",
  "importe": 95,
  "latitud": -16.4622905,
  "longitud": -54.6210664
}, {
  "id": 3,
  "fecha": "20/03/2020",
  "importe": 12,
  "latitud": 23.17277,
  "longitud": 114.289528
}, {
  "id": 4,
  "fecha": "20/06/2019",
  "importe": 60,
  "latitud": 22.765392,
  "longitud": 112.964446
}, {
  "id": 5,
  "fecha": "26/01/2020",
  "importe": 3,
  "latitud": -7.4405996,
  "longitud": 108.7766309
}, {
  "id": 6,
  "fecha": "25/07/2019",
  "importe": 62,
  "latitud": 23.1497287,
  "longitud": 113.3227193
}, {
  "id": 7,
  "fecha": "21/04/2020",
  "importe": 1,
  "latitud": -20.3438619,
  "longitud": 57.7636821
}, {
  "id": 8,
  "fecha": "05/12/2019",
  "importe": 13,
  "latitud": 31.2971634,
  "longitud": 121.4870071
}, {
  "id": 9,
  "fecha": "22/11/2019",
  "importe": 96,
  "latitud": 42.5442603,
  "longitud": 22.9616227
}, {
  "id": 10,
  "fecha": "11/02/2020",
  "importe": 72,
  "latitud": 57.7197857,
  "longitud": 12.933356
}]
